{
  "vector": {
    "version": "2.0.3",
    "path": "Nasal/vector.nas"
  },
  "missile-code": {
    "version": "1.1.2",
    "path": "Nasal/missile-code.nas"
  },
  "radar-system": {
    "version": "2.0.3",
    "path": "Nasal/Radar/radar-system.nas"
  },
  "radar-system-database": {
    "version": "1.1.9",
    "path": "Nasal/Radar/radar-system-database.nas"
  },
  "damage": {
    "version": "1.4.3",
    "path": "Nasal/damage.nas"
  },
  "iff": {
    "version": "1.1.0",
    "path": "Nasal/iff.nas"
  },
  "datalink": {
    "version": "1.1.0",
    "path": "Nasal/datalink.nas"
  },
  "station-manager": {
    "version": "1.1.0",
    "path": "Nasal/station-manager.nas"
  },
  "rcs-mand": {
    "version": "1.1.3",
    "path": "Nasal/rcs_mand.nas"
  },
  "armament-notification": {
    "version": "1.1.0",
    "path": "Nasal/ArmamentNotification.nas"
  },
  "geo-bridged-transmitter": {
    "version": "1.0.1",
    "path": "Nasal/GeoBridgedTransmitter.nas"
  },
  "crash-and-stress": {
    "version": "0.1.9",
    "path": "Nasal/crash-and-stress.nas"
  },
  "airbases": {
    "version": "1.0.28",
    "path": "Nasal/airbases.nas"
  }
}